<?xml version="1.0" encoding="UTF-8"?>
<glyph name="braceleft.case" format="1">
  <advance width="326"/>
  <outline>
    <component base="braceleft" yOffset="-10"/>
  </outline>
  <lib>
    <dict>
      <key>com.schriftgestaltung.Glyphs.ColorIndex</key>
      <integer>7</integer>
      <key>public.markColor</key>
      <string>0.18,0.16,0.78,1</string>
    </dict>
  </lib>
</glyph>
