<?xml version="1.0" encoding="UTF-8"?>
<glyph name="R" format="1">
  <advance width="561"/>
  <unicode hex="0052"/>
  <outline>
    <contour>
      <point x="130" y="680" type="line"/>
      <point x="130" y="0" type="line"/>
      <point x="132" y="0" type="line"/>
      <point x="132" y="678" type="line"/>
      <point x="267" y="678" type="line" smooth="yes"/>
      <point x="426" y="678"/>
      <point x="480" y="611"/>
      <point x="480" y="506" type="curve" smooth="yes"/>
      <point x="480" y="383"/>
      <point x="392" y="336"/>
      <point x="306" y="336" type="curve" smooth="yes"/>
      <point x="131" y="336" type="line"/>
      <point x="131" y="334" type="line"/>
      <point x="312" y="334" type="line"/>
      <point x="393" y="336"/>
      <point x="482" y="382"/>
      <point x="482" y="506" type="curve" smooth="yes"/>
      <point x="482" y="612"/>
      <point x="427" y="680"/>
      <point x="267" y="680" type="curve" smooth="yes"/>
    </contour>
    <contour>
      <point x="311" y="335" type="line"/>
      <point x="503" y="0" type="line"/>
      <point x="506" y="0" type="line"/>
      <point x="313" y="335" type="line"/>
    </contour>
    <contour>
      <point x="281" y="680" type="move" name="top"/>
    </contour>
    <contour>
      <point x="301" y="0" type="move" name="bottom"/>
    </contour>
  </outline>
  <lib>
    <dict>
      <key>com.schriftgestaltung.Glyphs.ColorIndex</key>
      <integer>4</integer>
      <key>public.markColor</key>
      <string>0.67,0.95,0.38,1</string>
    </dict>
  </lib>
</glyph>
